Non-Flat Implications of Flat Priors | Michael DeCrescenzo
…
accent <- viridis(n = 1, begin = 0.5, end = 0.5)

# set mu and sigma values
mu <- 4
sigma <- 2

# simulate nu and f(nu)
normal_example <- 
  tibble(
    nu = rnorm(100000),
    f_nu = mu + (nu * sigma)
  ) %>%
  print(n = 4) 
## # A tibble: 100,000 x 2
##       nu  f_nu
##    <dbl> <dbl>
## 1 -1.02  1.95 
## 2  0.908 5.82 
## 3 -1.72  0.556
## 4  0.184 4.37 
## # … with 99,996 more rows
…
