Using the Tidyverse with Voter Registration Linkage Data | Michael DeCrescenzo
…
# name the list elements
names(havv_list) <- sheet_names

There are over 400 data frames inside of havv-list. Let’s look at some.

head(havv_list, n = 2)
## $`January 2011-to date`
## # A tibble: 56 x 10
##    `STATE/TERRITORY` X__1   X__2  `(Z)` X__3  `(X)` `(Y)` `(V)` `(T)` `(W)`
##    <chr>             <chr>  <chr> <chr> <chr> <chr> <chr> <chr> <chr> <chr>
##  1 <NA>              <NA>   UN    TOTAL <NA>  SING… SING… MULT… MULT… MULT…
##  2 <NA>              TOTAL  PROC… NON   TOTAL MATCH MATCH MATCH MATCH MATCH
##  3 <NA>              TRANS… TRAN… MATC… MATC… ALIVE DECE… ALIVE DECE… MIXED
##  4 ----------------… -----… ----… ----… ----… ----… ----… ----… ----… ----…
##  5 Alabama           11858… 40    1569… 1028… 9717… 56916 209   1     38   
##  6 Alaska            26424  0     8725  17699 16171 1526  1     0     1    
##  7 Arizona           24236… 133   9605… 1462… 1452… 9829  253   0     5    
##  8 Arkansas          94537  0     32859 61678 61553 103   19    0     3    
##  9 California        65935… 36    5654… 9388… 9325… 6129  133   0     16   
## 10 Colorado          458296 0     1840… 2742… 2731… 1072  34    0     4    
## # … with 46 more rows
## 
## $`111018`
## # A tibble: 56 x 10
##    `STATE/TERRITORY` X__1   X__2  `(Z)` X__3  `(X)` `(Y)` `(V)` `(T)` `(W)`
##    <chr>             <chr>  <chr> <chr> <chr> <chr> <chr> <chr> <chr> <chr>
##  1 <NA>              <NA>   UN    TOTAL <NA>  SING… SING… MULT… MULT… MULT…
##  2 <NA>              TOTAL  PROC… NON   TOTAL MATCH MATCH MATCH MATCH MATCH
##  3 <NA>              TRANS… TRAN… MATC… MATC… ALIVE DECE… ALIVE DECE… MIXED
##  4 ----------------… -----… ----… ----… ----… ----… ----… ----… ----… ----…
##  5 ALABAMA           1069   0     147   922   885   37    0     0     0    
##  6 ALASKA            34     0     11    23    21    2     0     0     0    
##  7 ARIZONA           753    0     202   551   551   0     0     0     0    
##  8 ARKANSAS          0      0     0     0     0     0     0     0     0    
##  9 CALIFORNIA        47923  0     25583 22340 22310 28    2     0     0    
## 10 COLORADO          0      0     0     0     0     0     0     0     0    
## # … with 46 more rows
…
Okay…so most tables have 10 columns, but some inexplicably have 16,138 columns. At this point, I’m thinking I want to do things to the data such as, “Give me only the tables that have more than 10 columns” so I can manipulate those as a separate object. However, the list-of-data-frames isn’t the most amenable to these types of manipulations. Instead, we will use purrr tools to hold the data frames as a list-column within another data frame. I know, wild.

Purrr approach: sheets as list-column

Imagine you had a data frame, but one of the variables didn’t contain just one value per cell, but instead contained a dataset per cell. That’s what we will do.

We start by creating a data frame that has the sheet names as a variable. We will then use purrr::map to loop over those sheet names and place each data table into its corresponding cell. Like so:

# start with sheet names in a data frame
havv_df <- data_frame(sheet_name = sheet_names) %>%
  print()
## # A tibble: 412 x 1
##    sheet_name          
##    <chr>               
##  1 January 2011-to date
##  2 111018              
##  3 110318              
##  4 102718              
##  5 102018              
##  6 101318              
##  7 100618              
##  8 092918              
##  9 092218              
## 10 091518              
## # … with 402 more rows

# purrr::map(): for each name, read sheet from file
havv_df <- havv_df %>%
  mutate(
    data = map(sheet_name, 
               ~ readxl::read_excel(here(data_dir, "HAVV-running-list.xlsx"),
                                    sheet = .x))) %>%
  print()
## # A tibble: 412 x 2
##    sheet_name           data              
##    <chr>                <list>            
##  1 January 2011-to date <tibble [56 × 10]>
##  2 111018               <tibble [56 × 10]>
##  3 110318               <tibble [56 × 10]>
##  4 102718               <tibble [56 × 10]>
##  5 102018               <tibble [56 × 10]>
##  6 101318               <tibble [56 × 10]>
##  7 100618               <tibble [56 × 10]>
##  8 092918               <tibble [56 × 10]>
##  9 092218               <tibble [56 × 10]>
## 10 091518               <tibble [56 × 10]>
## # … with 402 more rows

Cleaning the data with purrr

Rows and columns

Let’s grab one of those tables that had 16 thousand columns. Start by creating a column in the data that stores the number of columns for each table, and then we’ll examine one of the abnormal tables. Do this by applying ncol() to every table using map_int().

# grab a table with more than 10 variables and look at it
bad_table <- havv_df %>%
  mutate(ncol = map_int(data, ncol)) %>%
  filter(ncol != 10) %>%
  sample_n(1) %>%
  unnest() %>% 
  print()
## # A tibble: 56 x 16,140
##    sheet_name  ncol `STATE/TERRITOR… X__1  X__2  `(Z)` X__3  `(X)` `(Y)`
##    <chr>      <int> <chr>            <chr> <chr> <chr> <chr> <chr> <chr>
##  1 083113     16138 <NA>             <NA>  UN    TOTAL <NA>  SING… SING…
##  2 083113     16138 <NA>             TOTAL PROC… NON   TOTAL MATCH MATCH
##  3 083113     16138 <NA>             TRAN… TRAN… MATC… MATC… ALIVE DECE…
##  4 083113     16138 ---------------… ----… ----… ----… ----… ----… ----…
##  5 083113     16138 Alabama          4010  0     463   3547  3436  110  
##  6 083113     16138 Alaska           29    0     10    19    19    0    
##  7 083113     16138 Arizona          304   0     140   164   160   4    
##  8 083113     16138 Arkansas         394   0     113   281   279   2    
##  9 083113     16138 California       22781 0     22001 780   769   11   
## 10 083113     16138 Colorado         0     0     0     0     0     0    
## # … with 46 more rows, and 16,131 more variables: `(V)` <chr>,
## #   `(T)` <chr>, `(W)` <chr>, X__4 <lgl>, X__5 <lgl>, X__6 <lgl>,
## #   X__7 <lgl>, X__8 <lgl>, X__9 <lgl>, X__10 <lgl>, X__11 <lgl>,
## #   X__12 <lgl>, X__13 <lgl>, X__14 <lgl>, X__15 <lgl>, X__16 <lgl>,
## #   X__17 <lgl>, X__18 <lgl>, X__19 <lgl>, X__20 <lgl>, X__21 <lgl>,
## #   X__22 <lgl>, X__23 <lgl>, X__24 <lgl>, X__25 <lgl>, X__26 <lgl>,
## #   X__27 <lgl>, X__28 <lgl>, X__29 <lgl>, X__30 <lgl>, X__31 <lgl>,
## #   X__32 <lgl>, X__33 <lgl>, X__34 <lgl>, X__35 <lgl>, X__36 <lgl>,
## #   X__37 <lgl>, X__38 <lgl>, X__39 <lgl>, X__40 <lgl>, X__41 <lgl>,
…
Luckily, these extra columns appear to be empty:

bad_table %>% 
  select(X__4:X__10)
## # A tibble: 56 x 7
##    X__4  X__5  X__6  X__7  X__8  X__9  X__10
##    <lgl> <lgl> <lgl> <lgl> <lgl> <lgl> <lgl>
##  1 NA    NA    NA    NA    NA    NA    NA   
##  2 NA    NA    NA    NA    NA    NA    NA   
##  3 NA    NA    NA    NA    NA    NA    NA   
##  4 NA    NA    NA    NA    NA    NA    NA   
##  5 NA    NA    NA    NA    NA    NA    NA   
##  6 NA    NA    NA    NA    NA    NA    NA   
##  7 NA    NA    NA    NA    NA    NA    NA   
##  8 NA    NA    NA    NA    NA    NA    NA   
##  9 NA    NA    NA    NA    NA    NA    NA   
## 10 NA    NA    NA    NA    NA    NA    NA   
## # … with 46 more rows

If these columns are blank, we can apply a function over all of the datasets to keep only the rows and columns we want: we want to delete the first few rows (which contain ugly variable names) and only the first ten columns. We will use this chance to rename those variables according to the vector of names we saved above.

# map: for each dataset, 
#   drop the first 4 rows, keep only cols 1:10
#   rename variables
havv_df <- havv_df %>%
  mutate(data = map(data, 
                    ~ .x[-(1:4) , 1:10] %>%
                      set_names(varnames))) %>%
  print()
## # A tibble: 412 x 2
##    sheet_name           data              
##    <chr>                <list>            
##  1 January 2011-to date <tibble [52 × 10]>
##  2 111018               <tibble [52 × 10]>
##  3 110318               <tibble [52 × 10]>
##  4 102718               <tibble [52 × 10]>
##  5 102018               <tibble [52 × 10]>
##  6 101318               <tibble [52 × 10]>
##  7 100618               <tibble [52 × 10]>
##  8 092918               <tibble [52 × 10]>
##  9 092218               <tibble [52 × 10]>
## 10 091518               <tibble [52 × 10]>
## # … with 402 more rows
# confirm that every table is 10 columns and 52 rows
havv_df %>%
  mutate(cols = map_int(data, ncol),
         rows = map_int(data, nrow)) %>%
  count(cols, rows)
## # A tibble: 1 x 3
##    cols  rows     n
##   <int> <int> <int>
## 1    10    52   412

# do things look good
havv_df %>%
  sample_n(1) %>%
  unnest()
## # A tibble: 52 x 11
##    sheet_name state total_transacti… unprocessed_tra… total_nonmatches
##    <chr>      <chr> <chr>            <chr>            <chr>           
##  1 052116     Alab… 837              0                116             
##  2 052116     Alas… 35               0                3               
##  3 052116     Ariz… 3210             0                914             
##  4 052116     Arka… 183              0                53              
##  5 052116     Cali… 14072            0                5921            
##  6 052116     Colo… 0                0                0               
##  7 052116     Conn… 275              0                53              
##  8 052116     Dela… 0                0                0               
##  9 052116     Dist… 0                0                0               
## 10 052116     Flor… 1318             0                544             
## # … with 42 more rows, and 6 more variables: total_matches <chr>,
## #   single_match_alive <chr>, single_match_deceased <chr>,
## #   multi_match_alive <chr>, multi_match_deceased <chr>,
## #   multi_match_mixed <chr>
…
Many of these dates are in a mmddyy format, but some are inconsistently formatted. There is one sheet that has a 4-digit year (2017 instead of 17), and a few sheets that contain summaries. Let’s go ahead and drop the summary tables and fix the 4-digit year table.

# filter: drop "2011 Totals" and "January 2011-to date"
# clean "09092017" to "090917"
# convert clean date to a date format
havv_df <- havv_df %>%
  filter(!(sheet_name %in% c("2011 Totals", "January 2011-to date"))) %>%
  mutate(clean_name = case_when(sheet_name == "09092017" ~ "090917", 
                                TRUE ~ sheet_name),
         date = lubridate::mdy(clean_name)) %>%
  print()
## # A tibble: 410 x 4
##    sheet_name data               clean_name date      
##    <chr>      <list>             <chr>      <date>    
##  1 111018     <tibble [52 × 10]> 111018     2018-11-10
##  2 110318     <tibble [52 × 10]> 110318     2018-11-03
##  3 102718     <tibble [52 × 10]> 102718     2018-10-27
##  4 102018     <tibble [52 × 10]> 102018     2018-10-20
##  5 101318     <tibble [52 × 10]> 101318     2018-10-13
##  6 100618     <tibble [52 × 10]> 100618     2018-10-06
##  7 092918     <tibble [52 × 10]> 092918     2018-09-29
##  8 092218     <tibble [52 × 10]> 092218     2018-09-22
##  9 091518     <tibble [52 × 10]> 091518     2018-09-15
## 10 090818     <tibble [52 × 10]> 090818     2018-09-08
## # … with 400 more rows
…
# unnest into "long" data
# we don't really need "clean_name" so drop it
# convert characters back to numbers
# states are sometimes titlecase, sometimes uppercase
# states are sometimes "total" and we don't want that
havv <- havv_df %>%
  unnest() %>%
  select(-clean_name) %>%
  mutate_at(vars(total_transactions:multi_match_mixed), as.numeric) %>%
  mutate(state = toupper(state),
         state = case_when(state == "NEBRASKS" ~ "NEBRASKA",
                           TRUE ~ state)) %>%
  filter(!(state %in% c("TOTAL", "TOTALS"))) %>%
  print()
## # A tibble: 20,910 x 12
##    sheet_name date       state total_transacti… unprocessed_tra…
##    <chr>      <date>     <chr>            <dbl>            <dbl>
##  1 111018     2018-11-10 ALAB…             1069                0
##  2 111018     2018-11-10 ALAS…               34                0
##  3 111018     2018-11-10 ARIZ…              753                0
##  4 111018     2018-11-10 ARKA…                0                0
##  5 111018     2018-11-10 CALI…            47923                0
##  6 111018     2018-11-10 COLO…                0                0
##  7 111018     2018-11-10 CONN…             2797                0
##  8 111018     2018-11-10 DELA…                0                0
##  9 111018     2018-11-10 DIST…                0                0
## 10 111018     2018-11-10 FLOR…              570                0
## # … with 20,900 more rows, and 7 more variables: total_nonmatches <dbl>,
## #   total_matches <dbl>, single_match_alive <dbl>,
## #   single_match_deceased <dbl>, multi_match_alive <dbl>,
## #   multi_match_deceased <dbl>, multi_match_mixed <dbl>
…
