Regression
…
---

# `broom::augment()`

Summarizes the model at the **observation level** ( `\(x_{i}\)`, `\(y_{i}\)`, conditional mean, residuals)

```r
augment(simple_reg)
```

--

```
## # A tibble: 13,430 x 10
##    .rownames nominate_dim1 rep_share_house .fitted .se.fit  .resid      .hat .sigma     .cooksd .std.resid
##    <chr>             <dbl>           <dbl>   <dbl>   <dbl>   <dbl>     <dbl>  <dbl>       <dbl>      <dbl>
##  1 1                 0.353            67.0   0.333 0.00303  0.0204 0.000171   0.232 0.000000665     0.0881
##  2 3                 0.361            54.6   0.111 0.00215  0.250  0.0000865  0.232 0.0000505       1.08  
##  3 4                 0.645            66.8   0.328 0.00301  0.317  0.000169   0.232 0.000158        1.37  
##  4 6                 0.711            74.6   0.467 0.00375  0.244  0.000262   0.232 0.000145        1.05  
##  5 8                 0.284            58.3   0.176 0.00235  0.108  0.000103   0.232 0.0000111       0.465 
##  6 11                0.674            71.5   0.412 0.00344  0.262  0.000221   0.232 0.000142        1.13  
##  7 12                0.593            62.1   0.245 0.00262  0.348  0.000128   0.232 0.000145        1.50  
##  8 13               -0.102            39.1  -0.167 0.00225  0.0651 0.0000946  0.232 0.00000374      0.281 
##  9 14                0.345            57.0   0.153 0.00227  0.192  0.0000963  0.232 0.0000332       0.830 
## 10 15               -0.45             24.7  -0.423 0.00339 -0.0271 0.000214   0.232 0.00000147     -0.117 
## # … with 13,420 more rows
```
…
--

.pull-right[

```r
pred_data <- 
  crossing(
    rep_share_house = 0:100,
    republican = c(0, 1)
  ) %>%
  print()
```

```
## # A tibble: 202 x 2
##    rep_share_house republican
##              <int>      <dbl>
##  1               0          0
##  2               0          1
##  3               1          0
##  4               1          1
##  5               2          0
##  6               2          1
##  7               3          0
##  8               3          1
##  9               4          0
## 10               4          1
## # … with 192 more rows
```

]

---

# Pass new data to augment

```r
augment(multi_mod, newdata = pred_data)
```

```
## # A tibble: 202 x 4
##    rep_share_house republican .fitted .se.fit
##              <int>      <dbl>   <dbl>   <dbl>
##  1               0          0  -0.441 0.00553
##  2               0          1   0.163 0.00966
##  3               1          0  -0.438 0.00539
##  4               1          1   0.166 0.00951
##  5               2          0  -0.435 0.00525
##  6               2          1   0.169 0.00936
##  7               3          0  -0.432 0.00510
##  8               3          1   0.172 0.00921
##  9               4          0  -0.429 0.00497
## 10               4          1   0.175 0.00906
## # … with 192 more rows
```
…
# Make confidence intervals

```r
predictions <- 
  augment(multi_mod, newdata = pred_data) %>%
  mutate(
    conf.low = .fitted - (.se.fit * 1.96), # should use residual DFs
    conf.high = .fitted + (.se.fit * 1.96) # from glance() results
  ) %>%                                    # to get t statistic
  print()
```

```
## # A tibble: 202 x 6
##    rep_share_house republican .fitted .se.fit conf.low conf.high
##              <int>      <dbl>   <dbl>   <dbl>    <dbl>     <dbl>
##  1               0          0  -0.441 0.00553   -0.452    -0.430
##  2               0          1   0.163 0.00966    0.145     0.182
##  3               1          0  -0.438 0.00539   -0.449    -0.428
##  4               1          1   0.166 0.00951    0.148     0.185
##  5               2          0  -0.435 0.00525   -0.446    -0.425
##  6               2          1   0.169 0.00936    0.151     0.188
##  7               3          0  -0.432 0.00510   -0.442    -0.422
##  8               3          1   0.172 0.00921    0.154     0.190
##  9               4          0  -0.429 0.00497   -0.439    -0.420
## 10               4          1   0.175 0.00906    0.157     0.193
## # … with 192 more rows
```
…
