Michael DeCrescenzo
…
We will use the mvtnorm package to simulate an arbitrary number of predictors for convenience. We will then use the predictors and the simulated parameters to generate \(y_{i}\).

library("mvtnorm")

# mean vector == beta
# convert to data frame to make pipeable, 
# but convert to matrix for dot product
d <- rmvnorm(n = n, mean = rnorm(n = k)) %>% 
  as_data_frame() %>%  
  mutate(mu = alpha + (as.matrix(.) %*% beta),
         error = rnorm(n = n, mean = 0, sd = 1),
         y = mu + error) %>% 
  print()
## # A tibble: 1,000 x 5
##        V1     V2      mu  error       y
##     <dbl>  <dbl>   <dbl>  <dbl>   <dbl>
##  1 -1.51   1.34   -2.49  -0.130  -2.62 
##  2  0.428  0.431   5.61   1.61    7.21 
##  3  0.950 -0.524   6.86  -1.29    5.57 
##  4  2.17  -0.109  13.2   -0.460  12.8  
##  5 -0.580 -1.69   -1.97  -0.899  -2.87 
##  6 -0.882 -2.06   -3.91   0.130  -3.78 
##  7 -0.932 -0.842  -2.56   1.52   -1.03 
##  8 -0.558  0.315   0.741 -0.382   0.359
##  9 -1.75  -1.23   -6.99   1.67   -5.32 
## 10  0.508  0.337   5.87  -0.689   5.18 
## # ... with 990 more rows
…
Predicted values

For predicted values, I create newdata objects where we vary some predictor of interest, leaving others held at mean, median, or modal values.

# vary V1, holding V2 constant
vary_v1 <- d %$% 
  data_frame(V1 = seq(min(V1), max(V1), .1),
             V2 = mean(V2)) %>% 
  print()
## # A tibble: 58 x 2
##       V1     V2
##    <dbl>  <dbl>
##  1 -2.76 -0.733
##  2 -2.66 -0.733
##  3 -2.56 -0.733
##  4 -2.46 -0.733
##  5 -2.36 -0.733
##  6 -2.26 -0.733
##  7 -2.16 -0.733
##  8 -2.06 -0.733
##  9 -1.96 -0.733
## 10 -1.86 -0.733
## # ... with 48 more rows

# hold V1 constant, vary V2
vary_v2 <- d %$% 
  data_frame(V1 = mean(V1),
             V2 = seq(min(V2), max(V2), .1)) %>% 
  print()
## # A tibble: 65 x 2
##       V1    V2
##    <dbl> <dbl>
##  1 0.116 -4.03
##  2 0.116 -3.93
##  3 0.116 -3.83
##  4 0.116 -3.73
##  5 0.116 -3.63
##  6 0.116 -3.53
##  7 0.116 -3.43
##  8 0.116 -3.33
##  9 0.116 -3.23
## 10 0.116 -3.13
## # ... with 55 more rows

A quick trick: we don’t have to generate predictions for these data frames separately. We could just combine the data and then generate predictions. While we could do this with mutate() and bind_rows() as above, we can be a little more efficient with list().

designs <- 
  list(V1 = vary_v1, V2 = vary_v2) %>% 
  bind_rows(.id = "varied") %>% 
  print()
## # A tibble: 123 x 3
##    varied    V1     V2
##    <chr>  <dbl>  <dbl>
##  1 V1     -2.76 -0.733
##  2 V1     -2.66 -0.733
##  3 V1     -2.56 -0.733
##  4 V1     -2.46 -0.733
##  5 V1     -2.36 -0.733
##  6 V1     -2.26 -0.733
##  7 V1     -2.16 -0.733
##  8 V1     -2.06 -0.733
##  9 V1     -1.96 -0.733
## 10 V1     -1.86 -0.733
## # ... with 113 more rows

When the data are in place, generating predictions using augment() is simple.

# use the t statistic to create confidence intervals
critical_t <- 
  glance(lmfull) %$% 
  qt(p = .975, df = df.residual)

# predicted values with 95% CIs for means
preds <- augment(lmfull, newdata = designs) %>%
  mutate(lower = .fitted - (critical_t * .se.fit),
         upper = .fitted + (critical_t * .se.fit)) %>% 
  as_data_frame() %>%  
  print()
## # A tibble: 123 x 7
##    varied    V1     V2 .fitted .se.fit  lower  upper
##    <chr>  <dbl>  <dbl>   <dbl>   <dbl>  <dbl>  <dbl>
##  1 V1     -2.76 -0.733  -11.1   0.101  -11.3  -10.9 
##  2 V1     -2.66 -0.733  -10.7   0.0974 -10.9  -10.5 
##  3 V1     -2.56 -0.733  -10.2   0.0942 -10.4  -10.00
##  4 V1     -2.46 -0.733   -9.71  0.0911  -9.88  -9.53
##  5 V1     -2.36 -0.733   -9.23  0.0880  -9.40  -9.06
##  6 V1     -2.26 -0.733   -8.75  0.0849  -8.92  -8.58
##  7 V1     -2.16 -0.733   -8.27  0.0819  -8.43  -8.11
##  8 V1     -2.06 -0.733   -7.79  0.0788  -7.95  -7.64
##  9 V1     -1.96 -0.733   -7.32  0.0758  -7.47  -7.17
## 10 V1     -1.86 -0.733   -6.84  0.0728  -6.98  -6.70
## # ... with 113 more rows
…
