Purrrmutation Testing | Michael DeCrescenzo
…
set.seed(90181)

n_obs <- 500
control_mean <- 0.5
treat_effect <- .06

d <- 
  tibble(id = 1:n_obs) %>%
  mutate(
    treatment = rbernoulli(n = n(), p = 0.5) %>% as.numeric(),
    y = rbernoulli(n = n(), p = control_mean + (treatment * treat_effect)) %>%
        as.numeric()
  ) %>%
  print()
## # A tibble: 500 x 3
##       id treatment     y
##    <int>     <dbl> <dbl>
##  1     1         1     1
##  2     2         0     0
##  3     3         0     0
##  4     4         1     1
##  5     5         1     1
##  6     6         1     1
##  7     7         0     0
##  8     8         0     1
##  9     9         0     1
## 10    10         0     1
## # … with 490 more rows
…
We deal with points (1) and (2) by using functional programming: applying a function over groups of data (see here for instance). In our case, a group will be a data frame, and the function is permuting the treatment assignments and estimating the treatment effect. We address point (3) by doing everything with a nested data frame and applying functions to groups using purrr::map(). I will describe the approach below one step at a time. After each step is explained, I will show how simple it is to combine them into a small, efficient block of readable code.

The first step is to make a nested data frame: a data frame that itself contains data frames (see e.g. [1], [2], [3]). Here I create a data frame with two columns: an identifier m that indexes our treatment permutations, and a data column that contains copies of our original dataset for each m.

# total number of iterations
n_sims <- 2000

# nested data frame of all M iterations
sim_table <- d %>%
  crossing(m = 1:n_sims) %>%
  group_by(m) %>%
  nest() %>%
  print()
## # A tibble: 2,000 x 2
## # Groups:   m [2,000]
##        m data              
##    <int> <list>            
##  1     1 <tibble [500 × 3]>
##  2     2 <tibble [500 × 3]>
##  3     3 <tibble [500 × 3]>
##  4     4 <tibble [500 × 3]>
##  5     5 <tibble [500 × 3]>
##  6     6 <tibble [500 × 3]>
##  7     7 <tibble [500 × 3]>
##  8     8 <tibble [500 × 3]>
##  9     9 <tibble [500 × 3]>
## 10    10 <tibble [500 × 3]>
## # … with 1,990 more rows

The data column is a list column, in this case a list of data frames for each row m (but it could contain other object types if we wanted). List columns are powerful for large-scale data manipulation because we can apply functions over each element in the list, similar to the way apply() functions work in base R. In our case, we want to apply a function that permutes the values in the treatment variable. We map this function over the nested data using purrr::map(), creating a new list column of data frames.

perm_table <- sim_table %>%
  mutate(
    permuted_data = map(
      .x = data, 
      .f = mutate, 
      treatment = sample(treatment)
    )
  ) %>%
  print()
## # A tibble: 2,000 x 3
## # Groups:   m [2,000]
##        m data               permuted_data     
##    <int> <list>             <list>            
##  1     1 <tibble [500 × 3]> <tibble [500 × 3]>
##  2     2 <tibble [500 × 3]> <tibble [500 × 3]>
##  3     3 <tibble [500 × 3]> <tibble [500 × 3]>
##  4     4 <tibble [500 × 3]> <tibble [500 × 3]>
##  5     5 <tibble [500 × 3]> <tibble [500 × 3]>
##  6     6 <tibble [500 × 3]> <tibble [500 × 3]>
##  7     7 <tibble [500 × 3]> <tibble [500 × 3]>
##  8     8 <tibble [500 × 3]> <tibble [500 × 3]>
##  9     9 <tibble [500 × 3]> <tibble [500 × 3]>
## 10    10 <tibble [500 × 3]> <tibble [500 × 3]>
## # … with 1,990 more rows

If you are new to purrr::map(), it needs to know two things: a vector or list column .x, and a function .f that is applied to each element in .x. In this case, .x is a list of data frames, and the function we apply is mutate(), which creates/modifies variables. We supply the additional function argument saying that we are overwriting the treatment variable by sampling its current values without replacement. This adds a list-column of 2,000 new data frames, each with a different permutation of treatment assignments. In case you need convincing, here is a table that glimpses the treatment assignments for a subset of m values.

perm_table %>%
  ungroup() %>%
  sample_n(5) %>%
  unnest(permuted_data) %>%
  select(m, id, treatment) %>%
  pivot_wider(
    names_from = m, 
    values_from = treatment,
    names_prefix = "trt, m = "
  )
## # A tibble: 500 x 6
##       id `trt, m = 561` `trt, m = 1471` `trt, m = 1325` `trt, m = 844`
##    <int>          <dbl>           <dbl>           <dbl>          <dbl>
##  1     1              0               0               0              1
##  2     2              0               1               1              0
##  3     3              1               0               1              1
##  4     4              0               1               1              1
##  5     5              1               0               1              1
##  6     6              0               0               1              0
##  7     7              0               0               1              1
##  8     8              1               0               1              1
##  9     9              1               1               0              1
## 10    10              0               0               1              1
## # … with 490 more rows, and 1 more variable: `trt, m = 943` <dbl>
Now that we have datasets with permuted treatments, we calculate some test statistic in each iteration. I will calculate the difference between the treatment and control means, but other statistics are possible as well.2
We again do this with map(), this time applying the summarize() function to calculate the treatment mean, the control mean, and the difference.

est_table <- perm_table %>%
  mutate(
    estimates = map(
      .x = permuted_data,
      .f = summarize, 
      mean_treatment_m = mean(y[treatment == 1]),
      mean_control_m = mean(y[treatment == 0]),
      diff_means_m = mean_treatment_m - mean_control_m
    )
  ) %>%
  print()
## # A tibble: 2,000 x 4
## # Groups:   m [2,000]
##        m data               permuted_data      estimates       
##    <int> <list>             <list>             <list>          
##  1     1 <tibble [500 × 3]> <tibble [500 × 3]> <tibble [1 × 3]>
##  2     2 <tibble [500 × 3]> <tibble [500 × 3]> <tibble [1 × 3]>
##  3     3 <tibble [500 × 3]> <tibble [500 × 3]> <tibble [1 × 3]>
##  4     4 <tibble [500 × 3]> <tibble [500 × 3]> <tibble [1 × 3]>
##  5     5 <tibble [500 × 3]> <tibble [500 × 3]> <tibble [1 × 3]>
##  6     6 <tibble [500 × 3]> <tibble [500 × 3]> <tibble [1 × 3]>
##  7     7 <tibble [500 × 3]> <tibble [500 × 3]> <tibble [1 × 3]>
##  8     8 <tibble [500 × 3]> <tibble [500 × 3]> <tibble [1 × 3]>
##  9     9 <tibble [500 × 3]> <tibble [500 × 3]> <tibble [1 × 3]>
## 10    10 <tibble [500 × 3]> <tibble [500 × 3]> <tibble [1 × 3]>
## # … with 1,990 more rows

We can view the estimates in each iteration by unnesting the estimates column…

est_summary <- est_table %>%
  select(m, estimates) %>%
  unnest(cols = estimates) %>%
  ungroup() %>%
  print()
## # A tibble: 2,000 x 4
##        m mean_treatment_m mean_control_m diff_means_m
##    <int>            <dbl>          <dbl>        <dbl>
##  1     1            0.563          0.514      0.0495 
##  2     2            0.539          0.537      0.00152
##  3     3            0.563          0.514      0.0495 
##  4     4            0.535          0.541     -0.00648
##  5     5            0.551          0.525      0.0255 
##  6     6            0.567          0.510      0.0575 
##  7     7            0.490          0.584     -0.0945 
##  8     8            0.535          0.541     -0.00648
##  9     9            0.518          0.557     -0.0385 
## 10    10            0.588          0.490      0.0976 
## # … with 1,990 more rows
…
  mutate(
    permuted_data = map(
      .x = data, 
      .f = ~ mutate(.x, treatment = sample(treatment))
    ),
    estimates = map(
      .x = permuted_data,
      .f = summarize,
      mean_treatment_m = mean(y[treatment == 1]),
      mean_control_m = mean(y[treatment == 0]),
      diff_means_m = mean_treatment_m - mean_control_m
    )
  ) %>%
  print()
## # A tibble: 2,000 x 4
## # Groups:   m [2,000]
##        m data               permuted_data      estimates       
##    <int> <list>             <list>             <list>          
##  1     1 <tibble [500 × 3]> <tibble [500 × 3]> <tibble [1 × 3]>
##  2     2 <tibble [500 × 3]> <tibble [500 × 3]> <tibble [1 × 3]>
##  3     3 <tibble [500 × 3]> <tibble [500 × 3]> <tibble [1 × 3]>
##  4     4 <tibble [500 × 3]> <tibble [500 × 3]> <tibble [1 × 3]>
##  5     5 <tibble [500 × 3]> <tibble [500 × 3]> <tibble [1 × 3]>
##  6     6 <tibble [500 × 3]> <tibble [500 × 3]> <tibble [1 × 3]>
##  7     7 <tibble [500 × 3]> <tibble [500 × 3]> <tibble [1 × 3]>
##  8     8 <tibble [500 × 3]> <tibble [500 × 3]> <tibble [1 × 3]>
##  9     9 <tibble [500 × 3]> <tibble [500 × 3]> <tibble [1 × 3]>
## 10    10 <tibble [500 × 3]> <tibble [500 × 3]> <tibble [1 × 3]>
## # … with 1,990 more rows
…
We can implement this routine by augmenting our data structure with a sequence of null values and performing the appropriate adjustments.

# for each m x delta_0, adjust the test statistic
# for each delta_0, calculate p-value 
conf_table <- ri_data %>%
  select(m, estimates) %>%
  unnest(estimates) %>%
  crossing(null_value = seq(-0.2, 0.2, .01)) %>%
  mutate(test_value = observed_estimates$diff_means - null_value) %>%
  group_by(null_value) %>%
  summarize(
    p.value = mean(diff_means_m > abs(test_value))
  ) %>%
  print()
## # A tibble: 41 x 2
##    null_value p.value
##         <dbl>   <dbl>
##  1      -0.2        0
##  2      -0.19       0
##  3      -0.18       0
##  4      -0.17       0
##  5      -0.16       0
##  6      -0.15       0
##  7      -0.14       0
##  8      -0.13       0
##  9      -0.12       0
## 10      -0.11       0
## # … with 31 more rows
…
Multiple treatments

Suppose that we had outcome data that were a function of multiple treatment conditions. Here is some fake data from an experiment where subjects rate potential candidates on a 0-10 scale, where the researcher manipulates the candidates party affiliation, occupation, and issue stances.

## # A tibble: 500 x 7
##       id cand_rating party occupation issue_tax issue_abortion issue_environment
##    <int>       <int> <dbl>      <int>     <int>          <int>             <int>
##  1     1           9     1          4         3              2                 3
##  2     2           2     2          2         1              3                 3
##  3     3           2     2          4         2              4                 1
##  4     4           7     2          3         2              3                 3
##  5     5           2     1          4         2              3                 1
##  6     6           5     2          2         1              2                 2
##  7     7           2     2          1         3              4                 3
##  8     8           8     2          3         3              2                 3
##  9     9          10     1          4         3              3                 2
## 10    10           6     1          2         2              1                 2
## # … with 490 more rows
…
# resample values for each var in `treatments`
multi_permuted <- multi_treat %>%
  crossing(m = 1:1000) %>%
  group_by(m) %>%
  nest() %>%
  mutate(
    permuted_data = map(
      .x = data, 
      .f = mutate_at,
      .vars = vars(one_of(treatments)),
      .funs = sample
    )
  ) %>%
  print()
## # A tibble: 1,000 x 3
## # Groups:   m [1,000]
##        m data               permuted_data     
##    <int> <list>             <list>            
##  1     1 <tibble [500 × 7]> <tibble [500 × 7]>
##  2     2 <tibble [500 × 7]> <tibble [500 × 7]>
##  3     3 <tibble [500 × 7]> <tibble [500 × 7]>
##  4     4 <tibble [500 × 7]> <tibble [500 × 7]>
##  5     5 <tibble [500 × 7]> <tibble [500 × 7]>
##  6     6 <tibble [500 × 7]> <tibble [500 × 7]>
##  7     7 <tibble [500 × 7]> <tibble [500 × 7]>
##  8     8 <tibble [500 × 7]> <tibble [500 × 7]>
##  9     9 <tibble [500 × 7]> <tibble [500 × 7]>
## 10    10 <tibble [500 × 7]> <tibble [500 × 7]>
## # … with 990 more rows

You would then be able to map() whatever estimation model you wanted over the permuted_data column, thereby estimating the model in each group m.

Block Randomization

Suppose we had data that were randomized within blocks. The data below contain \(n = 500\) observations and 5 blocks, with each block containing 50 treated units and 50 control units.

## # A tibble: 500 x 4
##       id block treatment     y
##    <int> <dbl>     <dbl> <dbl>
##  1     1     2         1     0
##  2     2     3         0     1
##  3     3     4         0     0
##  4     4     5         1     1
##  5     5     1         0     0
##  6     6     2         0     1
##  7     7     3         1     1
##  8     8     4         1     0
##  9     9     5         1     0
## 10    10     1         1     1
## # … with 490 more rows
…
block_data %>%
  crossing(m = 1:1000) %>%
  group_by(m) %>%
  nest() %>%
  mutate(
    permuted_data = map(
      .x = data, 
      .f = ~ .x %>%
             group_by(block) %>%
             mutate(treatment = sample(treatment)) %>%
             ungroup()
    )
  ) %>%
  print()
## # A tibble: 1,000 x 3
## # Groups:   m [1,000]
##        m data               permuted_data     
##    <int> <list>             <list>            
##  1     1 <tibble [500 × 4]> <tibble [500 × 4]>
##  2     2 <tibble [500 × 4]> <tibble [500 × 4]>
##  3     3 <tibble [500 × 4]> <tibble [500 × 4]>
##  4     4 <tibble [500 × 4]> <tibble [500 × 4]>
##  5     5 <tibble [500 × 4]> <tibble [500 × 4]>
##  6     6 <tibble [500 × 4]> <tibble [500 × 4]>
##  7     7 <tibble [500 × 4]> <tibble [500 × 4]>
##  8     8 <tibble [500 × 4]> <tibble [500 × 4]>
##  9     9 <tibble [500 × 4]> <tibble [500 × 4]>
## 10    10 <tibble [500 × 4]> <tibble [500 × 4]>
## # … with 990 more rows

Cluster randomization

With cluster-randomized data, units are grouped within a cluster, and then every unit within a cluster gets the same treatment. Cluster-randomized data might look like so:

## # A tibble: 500 x 4
##       id cluster treatment     y
##    <int>   <dbl>     <dbl> <dbl>
##  1     1       1         0     1
##  2     2       1         0     0
##  3     3       1         0     0
##  4     4       1         0     1
##  5     5       1         0     0
##  6     6       2         1     1
##  7     7       2         1     0
##  8     8       2         1     1
##  9     9       2         1     1
## 10    10       2         1     0
## # … with 490 more rows
…
cluster_permuted <- cluster_data %>%
  crossing(m = 1:1000) %>%
  group_by(m) %>%
  nest() %>%
  mutate(
    permuted_data = map(
      .x = data,
      .f = ~ .x %>%
             nest(within_cluster = c(id, y)) %>%
             mutate(treatment = sample(treatment)) %>%
             unnest(within_cluster)
    )
  ) %>%
  print()
## # A tibble: 1,000 x 3
## # Groups:   m [1,000]
##        m data               permuted_data     
##    <int> <list>             <list>            
##  1     1 <tibble [500 × 4]> <tibble [500 × 4]>
##  2     2 <tibble [500 × 4]> <tibble [500 × 4]>
##  3     3 <tibble [500 × 4]> <tibble [500 × 4]>
##  4     4 <tibble [500 × 4]> <tibble [500 × 4]>
##  5     5 <tibble [500 × 4]> <tibble [500 × 4]>
##  6     6 <tibble [500 × 4]> <tibble [500 × 4]>
##  7     7 <tibble [500 × 4]> <tibble [500 × 4]>
##  8     8 <tibble [500 × 4]> <tibble [500 × 4]>
##  9     9 <tibble [500 × 4]> <tibble [500 × 4]>
## 10    10 <tibble [500 × 4]> <tibble [500 × 4]>
## # … with 990 more rows
…
