Michael DeCrescenzo
…
Shaping data for plotting

Let’s say we wanted to compare Democratic and Republican Thermometer ratings in the same plot. They are two separate variables to start with, so we would need to gather the data frame so we can map those variables as groups to an aesthetic.

longtherms <- meantherms %>% 
  gather(key = candidate, value = score, contains("therm")) %>%
  mutate(candidate = case_when(str_detect(candidate, "gop") ~ "Republican Candidate",
                           TRUE ~ "Democratic Candidate")) %>% 
  print()

## # A tibble: 72 x 4
## # Groups:   cycle [12]
##    cycle        pid3            candidate    score
##    <dbl>       <chr>                <chr>    <dbl>
##  1  1968    Democrat Democratic Candidate 73.35776
##  2  1968 Independent Democratic Candidate 59.41463
##  3  1968  Republican Democratic Candidate 51.09512
##  4  1972    Democrat Democratic Candidate 64.78986
##  5  1972 Independent Democratic Candidate 53.21581
##  6  1972  Republican Democratic Candidate 43.54042
##  7  1976    Democrat Democratic Candidate 74.32839
##  8  1976 Independent Democratic Candidate 63.11388
##  9  1976  Republican Democratic Candidate 52.28637
## 10  1980    Democrat Democratic Candidate 69.34694
## # ... with 62 more rows
…
To reorder these categories, I recommend using tools in the forcats package, which, conveniently, is part of the tidyverse package.

fct_relevel(): declare a factor variable, and then declare the order of levels. Any level not listed during reordering is given the same precedence as the original variable

fct_rev(): reverse the order of a factor’s levels

fct_recode(): change the levels of a factor

Here is an example where we take the f variable, a factor with ordered levels, and rearrange the order of the levels so that they appear in the legend with the proper order.

fixed_d <- d %>%
  mutate(fixed_f = fct_relevel(f, "a", "b", "c", "d")) %>%
  print()

## # A tibble: 100 x 5
##             x         y     s      f fixed_f
##         <dbl>     <dbl> <chr> <fctr>  <fctr>
##  1  0.6844053 5.5126263     a      a       a
##  2  2.5372780 7.5868221     b      b       b
##  3  0.6138414 6.2381298     c      c       c
##  4  1.0709282 5.1566937     a      a       a
##  5  1.7740128 6.9458844     b      b       b
##  6 -2.1576270 0.1592212     a      a       a
##  7 -0.2909942 6.2808771     b      b       b
##  8 -0.4529066 3.7418871     c      c       c
##  9  1.1050420 6.0245482     c      c       c
## 10 -0.4985478 4.6020331     c      c       c
## # ... with 90 more rows
…
