Non-Flat Implications of Flat Priors | Michael DeCrescenzo
…
# set mu and sigma values
mu <- 4
sigma <- 2

# simulate nu and f(nu)
normal_example <- 
  tibble(
    nu = rnorm(100000),
    f_nu = mu + (nu * sigma)
  ) %>%
  print(n = 4) 
## # A tibble: 100,000 x 2
##        nu  f_nu
##     <dbl> <dbl>
## 1  0.669   5.34
## 2 -0.448   3.10
## 3  0.0987  4.20
## 4  0.591   5.18
## # … with 99,996 more rows
…
