Michael DeCrescenzo
…
# use the package to read the data
library("haven")
anes <- read_dta("data/anes_timeseries_cdf.dta")

This should take a few moments to load, because the ANES cumulative file is a big file.

Data frames

Most datasets you will work with in R are called “data frames.” These are basically R’s default dataset object. They are two-dimensional tables, but the columns (variables) have names. These are like the variable names we saw with Stata. What’s different about Stata is that, with R, we can have as many of these tables in R’s current memory as we want. In Stata, you can only have one table at a time.

Print the data to see what the data look like.

anes

## # A tibble: 55,674 x 952
##                         Version VCF0004 VCF0006 VCF0006a VCF0009x VCF0010x
##                           <chr>   <dbl>   <dbl>    <dbl>    <dbl>    <dbl>
##  1 ANES_cdf-VERSION:2015-May-14    1948    1001 19481001        1        1
##  2 ANES_cdf-VERSION:2015-May-14    1948    1002 19481002        1        1
##  3 ANES_cdf-VERSION:2015-May-14    1948    1003 19481003        1        1
##  4 ANES_cdf-VERSION:2015-May-14    1948    1004 19481004        1        1
##  5 ANES_cdf-VERSION:2015-May-14    1948    1005 19481005        1        1
##  6 ANES_cdf-VERSION:2015-May-14    1948    1006 19481006        1        1
##  7 ANES_cdf-VERSION:2015-May-14    1948    1007 19481007        1        1
##  8 ANES_cdf-VERSION:2015-May-14    1948    1008 19481008        1        1
##  9 ANES_cdf-VERSION:2015-May-14    1948    1009 19481009        1        1
## 10 ANES_cdf-VERSION:2015-May-14    1948    1010 19481010        1        1
## # ... with 55,664 more rows, and 946 more variables: VCF0011x <dbl>,
## #   VCF0009y <dbl>, VCF0010y <dbl>, VCF0011y <dbl>, VCF0009z <dbl>,
## #   VCF0010z <dbl>, VCF0011z <dbl>, VCF0012 <dbl>, VCF0012a <dbl>,
## #   VCF0012b <dbl>, VCF0013 <dbl+lbl>, VCF0014 <dbl+lbl>,
## #   VCF0015a <dbl+lbl>, VCF0015b <dbl+lbl>, VCF0016 <dbl+lbl>,
## #   VCF0017 <dbl+lbl>, VCF0018a <dbl+lbl>, VCF0018b <dbl+lbl>,
## #   VCF0019 <dbl+lbl>, VCF0050a <dbl+lbl>, VCF0050b <dbl+lbl>,
## #   VCF0070a <dbl+lbl>, VCF0070b <dbl+lbl>, VCF0071a <dbl+lbl>,
## #   VCF0071b <dbl+lbl>, VCF0071c <dbl+lbl>, VCF0071d <dbl+lbl>,
…
Side note: this also shows how you can create data frames using the data_frame() function.

Manipulating factors and strings

You should check out the forcats and stringr packages. They are tools for manipulating factors and strings, respectively, and are loaded when you load the tidyverse package. We will revisit these when we discuss graphics in the next lesson.

Selecting columns

Maybe you don’t need all these variables for something. You can select specific variables using the select() function.

select(anes, cycle, pid7)

## # A tibble: 55,674 x 2
##    cycle      pid7
##    <dbl> <dbl+lbl>
##  1  1948        NA
##  2  1948        NA
##  3  1948        NA
##  4  1948        NA
##  5  1948        NA
##  6  1948        NA
##  7  1948        NA
##  8  1948        NA
##  9  1948        NA
## 10  1948        NA
## # ... with 55,664 more rows

(The pid7 variable is only NA because the variable isn’t valid for very old survey years. There is nothing wrong here.)

There are various “select helper” functions that aid us in selecting variables. Let’s look at the last of the variable names that we’ve created:

tail(names(anes))

## [1] "VCF9153"        "VCF9154"        "VCF9155"        "dem_distance"  
## [5] "rep_distance"   "party_distance"

We can select a range of variables using the : operator, kind of analogous to the way we can create sequences of integers. He we will grab the variables between dem_distance and party_distance.

select(anes, cycle, dem_distance:party_distance)

## # A tibble: 55,674 x 4
##    cycle dem_distance rep_distance party_distance
##    <dbl>        <dbl>    <dbl+lbl>      <dbl+lbl>
##  1  1948           NA           NA             NA
##  2  1948           NA           NA             NA
##  3  1948           NA           NA             NA
##  4  1948           NA           NA             NA
##  5  1948           NA           NA             NA
##  6  1948           NA           NA             NA
##  7  1948           NA           NA             NA
##  8  1948           NA           NA             NA
##  9  1948           NA           NA             NA
## 10  1948           NA           NA             NA
## # ... with 55,664 more rows

Again, the NA values are just because of the survey year that we can see in the preview.

We can select variables by partial name matches.

select(anes, cycle, contains("libcon"))

## # A tibble: 55,674 x 4
##    cycle libcon_demparty libcon_repparty libcon_self
##    <dbl>           <dbl>       <dbl+lbl>       <dbl>
##  1  1948              NA              NA          NA
##  2  1948              NA              NA          NA
##  3  1948              NA              NA          NA
##  4  1948              NA              NA          NA
##  5  1948              NA              NA          NA
##  6  1948              NA              NA          NA
##  7  1948              NA              NA          NA
##  8  1948              NA              NA          NA
##  9  1948              NA              NA          NA
## 10  1948              NA              NA          NA
## # ... with 55,664 more rows

Check out more in the help file (?select)

Filtering rows (subsetting)

Let’s say we only want some of the cases. Use the filter() function and a logical test to identify the cases you want.

filter(anes, cycle == 2012)

## # A tibble: 5,914 x 955
##                         Version cycle VCF0006 VCF0006a VCF0009x VCF0010x
##                           <chr> <dbl>   <dbl>    <dbl>    <dbl>    <dbl>
##  1 ANES_cdf_VERSION:2015-May-14  2012       1 20120001   0.3802   0.3802
##  2 ANES_cdf_VERSION:2015-May-14  2012       2 20120002   0.5470   0.5470
##  3 ANES_cdf_VERSION:2015-May-14  2012       3 20120003   0.4975   0.4975
##  4 ANES_cdf_VERSION:2015-May-14  2012       4 20120004   0.2549   0.2549
##  5 ANES_cdf_VERSION:2015-May-14  2012       5 20120005   0.6028   0.6028
##  6 ANES_cdf_VERSION:2015-May-14  2012       6 20120006   0.2864   0.2864
##  7 ANES_cdf_VERSION:2015-May-14  2012       7 20120007   0.1948   0.1948
##  8 ANES_cdf_VERSION:2015-May-14  2012       8 20120008   0.3941   0.3941
##  9 ANES_cdf_VERSION:2015-May-14  2012       9 20120009   0.5062   0.5062
## 10 ANES_cdf_VERSION:2015-May-14  2012      10 20120010   2.5067   2.5067
## # ... with 5,904 more rows, and 949 more variables: VCF0011x <dbl>,
## #   VCF0009y <dbl>, VCF0010y <dbl>, VCF0011y <dbl>, VCF0009z <dbl>,
## #   VCF0010z <dbl>, VCF0011z <dbl>, VCF0012 <dbl>, VCF0012a <dbl>,
## #   VCF0012b <dbl>, VCF0013 <dbl+lbl>, VCF0014 <dbl+lbl>,
## #   VCF0015a <dbl+lbl>, VCF0015b <dbl+lbl>, VCF0016 <dbl+lbl>,
## #   VCF0017 <dbl+lbl>, VCF0018a <dbl+lbl>, VCF0018b <dbl+lbl>,
## #   VCF0019 <dbl+lbl>, VCF0050a <dbl+lbl>, VCF0050b <dbl+lbl>,
## #   VCF0070a <dbl+lbl>, VCF0070b <dbl+lbl>, VCF0071a <dbl+lbl>,
## #   VCF0071b <dbl+lbl>, VCF0071c <dbl+lbl>, VCF0071d <dbl+lbl>,
…
Note how I’m nesting these functions using the order of operations. The data I’m passing to summarize() is actually the result of the filter() command. The section on the pipe operator will help us unpack these operations and make them more linear(!).

Sorting data

Or “arranging” with arrange(). By default, sorting happens in ascending order. You can coerce descending order using the desc() function. You can sort by multiple variables.

arr <- select(anes, cycle, party_distance) 
arrange(arr, desc(cycle), party_distance)

## # A tibble: 55,674 x 2
##    cycle party_distance
##    <dbl>      <dbl+lbl>
##  1  2012             -6
##  2  2012             -6
##  3  2012             -6
##  4  2012             -6
##  5  2012             -6
##  6  2012             -6
##  7  2012             -6
##  8  2012             -6
##  9  2012             -6
## 10  2012             -6
## # ... with 55,664 more rows
…
Tidy tables

Objects returned by tables are a table object type, which isn’t very useful for doing more stuff with. If you want to incorporate the results of a tabulation into other data frame operations (the likes of which we’ve been learning about), there are some Tidyverse-style tabulating functions.

count(anes, cycle, pid7)

## # A tibble: 233 x 3
##    cycle      pid7     n
##    <dbl> <dbl+lbl> <int>
##  1  1948        NA   662
##  2  1952         1   392
##  3  1952         2   435
##  4  1952         3   173
##  5  1952         4    83
##  6  1952         5   128
##  7  1952         6   237
##  8  1952         7   241
##  9  1952        NA   210
## 10  1954         1   248
## # ... with 223 more rows

Get proportions by mutating the resulting table. Here we get the proportion of each partisan identity for each election cycle.

tab <- count(anes, cycle, pid7)

mutate(group_by(tab, cycle), 
       p = n / sum(n, na.rm = TRUE),
       p = round(p, 3))

## # A tibble: 233 x 4
## # Groups:   cycle [30]
##    cycle      pid7     n     p
##    <dbl> <dbl+lbl> <int> <dbl>
##  1  1948        NA   662 1.000
##  2  1952         1   392 0.206
##  3  1952         2   435 0.229
##  4  1952         3   173 0.091
##  5  1952         4    83 0.044
##  6  1952         5   128 0.067
##  7  1952         6   237 0.125
##  8  1952         7   241 0.127
##  9  1952        NA   210 0.111
## 10  1954         1   248 0.218
## # ... with 223 more rows

The count() function also handles sample weights. Indenting for better legibility.

count(filter(anes, cycle >= 2000), 
      cycle, pid7, 
      wt = VCF0009z)

## # A tibble: 40 x 3
##    cycle      pid7        n
##    <dbl> <dbl+lbl>    <dbl>
##  1  2000         1 344.6939
##  2  2000         2 273.7651
##  3  2000         3 275.2899
##  4  2000         4 237.4360
##  5  2000         5 231.3207
##  6  2000         6 207.1033
##  7  2000         7 220.8637
##  8  2000        NA  16.5273
##  9  2002         1 246.1232
## 10  2002         2 249.9238
## # ... with 30 more rows
…
