Michael DeCrescenzo
…
We will use the mvtnorm package to simulate an arbitrary number of predictors for convenience. We will then use the predictors and the simulated parameters to generate \(y_{i}\).

library("mvtnorm")

# mean vector == beta
# convert to data frame to make pipeable, 
# but convert to matrix for dot product
d <- rmvnorm(n = n, mean = rnorm(n = k)) %>% 
  as_data_frame() %>%  
  mutate(mu = alpha + (as.matrix(.) %*% beta),
         error = rnorm(n = n, mean = 0, sd = 1),
         y = mu + error) %>% 
  print()
## # A tibble: 1,000 x 5
##        V1     V2    mu  error     y
##     <dbl>  <dbl> <dbl>  <dbl> <dbl>
##  1  1.27  -0.580  3.76 -1.94   1.83
##  2  1.80  -0.603  4.54  1.15   5.69
##  3  1.68   1.09   7.90  0.304  8.20
##  4 -0.739  0.636  3.18  0.227  3.41
##  5  1.46   1.10   7.56 -0.573  6.98
##  6  1.01   1.55   7.81 -0.161  7.64
##  7  2.44   0.664  8.16  0.131  8.29
##  8  1.90  -1.32   3.20 -0.328  2.87
##  9  1.03   0.799  6.26 -0.453  5.81
## 10  1.32   2.54  10.4  -0.998  9.36
## # ... with 990 more rows
…
Predicted values

For predicted values, I create newdata objects where we vary some predictor of interest, leaving others held at mean, median, or modal values.

# vary V1, holding V2 constant
vary_v1 <- d %$% 
  data_frame(V1 = seq(min(V1), max(V1), .1),
             V2 = mean(V2)) %>% 
  print()
## # A tibble: 60 x 2
##        V1    V2
##     <dbl> <dbl>
##  1 -1.65  0.786
##  2 -1.55  0.786
##  3 -1.45  0.786
##  4 -1.35  0.786
##  5 -1.25  0.786
##  6 -1.15  0.786
##  7 -1.05  0.786
##  8 -0.952 0.786
##  9 -0.852 0.786
## 10 -0.752 0.786
## # ... with 50 more rows

# hold V1 constant, vary V2
vary_v2 <- d %$% 
  data_frame(V1 = mean(V1),
             V2 = seq(min(V2), max(V2), .1)) %>% 
  print()
## # A tibble: 67 x 2
##       V1    V2
##    <dbl> <dbl>
##  1  1.33 -2.60
##  2  1.33 -2.50
##  3  1.33 -2.40
##  4  1.33 -2.30
##  5  1.33 -2.20
##  6  1.33 -2.10
##  7  1.33 -2.00
##  8  1.33 -1.90
##  9  1.33 -1.80
## 10  1.33 -1.70
## # ... with 57 more rows

A quick trick: we don’t have to generate predictions for these data frames separately. We could just combine the data and then generate predictions. While we could do this with mutate() and bind_rows() as above, we can be a little more efficient with list().

designs <- 
  list(V1 = vary_v1, V2 = vary_v2) %>% 
  bind_rows(.id = "varied") %>% 
  print()
## # A tibble: 127 x 3
##    varied     V1    V2
##    <chr>   <dbl> <dbl>
##  1 V1     -1.65  0.786
##  2 V1     -1.55  0.786
##  3 V1     -1.45  0.786
##  4 V1     -1.35  0.786
##  5 V1     -1.25  0.786
##  6 V1     -1.15  0.786
##  7 V1     -1.05  0.786
##  8 V1     -0.952 0.786
##  9 V1     -0.852 0.786
## 10 V1     -0.752 0.786
## # ... with 117 more rows

When the data are in place, generating predictions using augment() is simple.

# use the t statistic to create confidence intervals
critical_t <- 
  glance(lmfull) %$% 
  qt(p = .975, df = df.residual)

# predicted values with 95% CIs for means
preds <- augment(lmfull, newdata = designs) %>%
  mutate(lower = .fitted - (critical_t * .se.fit),
         upper = .fitted + (critical_t * .se.fit)) %>% 
  as_data_frame() %>%  
  print()
## # A tibble: 127 x 7
##    varied     V1    V2 .fitted .se.fit lower upper
##    <chr>   <dbl> <dbl>   <dbl>   <dbl> <dbl> <dbl>
##  1 V1     -1.65  0.786    1.94  0.0998  1.75  2.14
##  2 V1     -1.55  0.786    2.10  0.0968  1.91  2.29
##  3 V1     -1.45  0.786    2.26  0.0938  2.08  2.44
##  4 V1     -1.35  0.786    2.42  0.0908  2.24  2.60
##  5 V1     -1.25  0.786    2.58  0.0879  2.41  2.75
##  6 V1     -1.15  0.786    2.74  0.0849  2.57  2.90
##  7 V1     -1.05  0.786    2.90  0.0820  2.73  3.06
##  8 V1     -0.952 0.786    3.05  0.0791  2.90  3.21
##  9 V1     -0.852 0.786    3.21  0.0762  3.06  3.36
## 10 V1     -0.752 0.786    3.37  0.0733  3.23  3.52
## # ... with 117 more rows
…
