How do I reinstall my packages for R 4.0 when many of them came from Github? | Michael DeCrescenzo
…
What is already installed?

First we collect information on the packages we already have installed. I am working out of a project directory that manages all of my R updating business, so I use the {here} package consistent with a project-oriented R workflow. We will also use tidyverse-style data manipulation.

library("here")
library("tidyverse")
## Warning: package 'tibble' was built under R version 4.0.2

The installed.packages() function returns a table of package information for all packages in your library. I convert this to a tibble to make things easier.

# data frame of all installed packages
local_pkgs <- installed.packages() %>%
  as_tibble() %>%
  print()
## # A tibble: 392 x 16
##    Package LibPath Version Priority Depends Imports LinkingTo Suggests Enhances
##    <chr>   <chr>   <chr>   <chr>    <chr>   <chr>   <chr>     <chr>    <chr>   
##  1 abind   /Libra… 1.4-5   <NA>     "R (>=… method… <NA>       <NA>    <NA>    
##  2 adagio  /Libra… 0.7.1   <NA>     "R (>=… graphi… <NA>       <NA>    <NA>    
##  3 ade4    /Libra… 1.7-15  <NA>     "R (>=… graphi… <NA>      "ade4Tk… <NA>    
##  4 AER     /Libra… 1.2-9   <NA>     "R (>=… stats,… <NA>      "boot, … <NA>    
##  5 Amelia  /Libra… 1.7.6   <NA>     "R (>=… foreig… Rcpp (>=… "tcltk,… <NA>    
##  6 arrayh… /Libra… 1.1-0   <NA>      <NA>   method… <NA>       <NA>    <NA>    
##  7 askpass /Libra… 1.1     <NA>      <NA>   sys (>… <NA>      "testth… <NA>    
##  8 assert… /Libra… 0.2.1   <NA>      <NA>   tools   <NA>      "testth… <NA>    
##  9 audio   /Libra… 0.1-7   <NA>     "R (>=… <NA>    <NA>       <NA>    <NA>    
## 10 backpo… /Libra… 1.1.7   <NA>     "R (>=… utils   <NA>       <NA>    <NA>    
## # … with 382 more rows, and 7 more variables: License <chr>,
## #   License_is_FOSS <chr>, License_restricts_use <chr>, OS_type <chr>,
## #   MD5sum <chr>, NeedsCompilation <chr>, Built <chr>

This is a start, but I also want to know if I got these packages from CRAN or from Github. I can do this with sessioninfo::package_info(), passing a vector of package names to the function.

# get source details (cran, github...) from package_info()
local_details <- 
  sessioninfo::package_info(pkgs = local_pkgs$Package) %>%
  as_tibble() %>%
  select(package, local_version = ondiskversion, source) %>%
  print()
## # A tibble: 378 x 3
##    package      local_version source        
##    <chr>        <chr>         <chr>         
##  1 abind        1.4-5         CRAN (R 4.0.0)
##  2 adagio       0.7.1         CRAN (R 4.0.0)
##  3 ade4         1.7-15        CRAN (R 4.0.0)
##  4 AER          1.2-9         CRAN (R 4.0.0)
##  5 Amelia       1.7.6         CRAN (R 4.0.0)
##  6 arrayhelpers 1.1-0         CRAN (R 4.0.0)
##  7 askpass      1.1           CRAN (R 4.0.0)
##  8 assertthat   0.2.1         CRAN (R 4.0.0)
##  9 audio        0.1-7         CRAN (R 4.0.0)
## 10 backports    1.1.7         CRAN (R 4.0.0)
## # … with 368 more rows
…
Determining install source by comparing package versions

Before you update R, you may be using packages installed from Github, even if those packages are also on CRAN. We want to compare our locally installed package versions against the versions on CRAN. If the CRAN versions are more recent, we can go ahead and get those packages from CRAN. If the Github versions are still the most recent (or the only) versions of some packages, we want to get them from Github.

We will want to get a table of data on CRAN package versions. The available.packages() function returns info for all packages on CRAN.

# available.packages() returns pkg info for ALL pkgs on CRAN.
cran_pkgs <- available.packages() %>% 
  as_tibble(.name_repair = tolower) %>%
  print()
## # A tibble: 16,578 x 17
##    package version priority depends imports linkingto suggests enhances license
##    <chr>   <chr>   <chr>    <chr>   <chr>   <chr>     <chr>    <chr>    <chr>  
##  1 A3      1.0.0   <NA>     R (>= …  <NA>   <NA>      randomF… <NA>     GPL (>…
##  2 aaSEA   1.1.0   <NA>     R(>= 3… "DT(>=… <NA>      knitr, … <NA>     GPL-3  
##  3 AATtoo… 0.0.1   <NA>     R (>= … "magri… <NA>      <NA>     <NA>     GPL-3  
##  4 ABACUS  1.0.0   <NA>     R (>= … "ggplo… <NA>      rmarkdo… <NA>     GPL-3  
##  5 abbyyR  0.5.5   <NA>     R (>= … "httr,… <NA>      testtha… <NA>     MIT + …
##  6 abc     2.1     <NA>     R (>= …  <NA>   <NA>      <NA>     <NA>     GPL (>…
##  7 abc.da… 1.0     <NA>     R (>= …  <NA>   <NA>      <NA>     <NA>     GPL (>…
##  8 ABC.RAP 0.9.0   <NA>     R (>= … "graph… <NA>      knitr, … <NA>     GPL-3  
##  9 abcADM  1.0     <NA>     <NA>    "Rcpp … Rcpp, BH  <NA>     <NA>     GPL-3  
## 10 ABCana… 1.2.1   <NA>     R (>= … "plotr… <NA>      <NA>     <NA>     GPL-3  
## # … with 16,568 more rows, and 8 more variables: license_is_foss <chr>,
## #   license_restricts_use <chr>, os_type <chr>, archs <chr>, md5sum <chr>,
## #   needscompilation <chr>, file <chr>, repository <chr>

We only care about the packages in this table that we have already installed, so we will narrow the table down using a join.

slimmer_frame <- 
  left_join(
    x = select(local_details, package, local_version, source),
    y = select(cran_pkgs, package, cran_version = version)
  ) %>%
  print()
## # A tibble: 378 x 4
##    package      local_version source         cran_version
##    <chr>        <chr>         <chr>          <chr>       
##  1 abind        1.4-5         CRAN (R 4.0.0) 1.4-5       
##  2 adagio       0.7.1         CRAN (R 4.0.0) 0.7.1       
##  3 ade4         1.7-15        CRAN (R 4.0.0) 1.7-16      
##  4 AER          1.2-9         CRAN (R 4.0.0) 1.2-9       
##  5 Amelia       1.7.6         CRAN (R 4.0.0) 1.7.6       
##  6 arrayhelpers 1.1-0         CRAN (R 4.0.0) 1.1-0       
##  7 askpass      1.1           CRAN (R 4.0.0) 1.1         
##  8 assertthat   0.2.1         CRAN (R 4.0.0) 0.2.1       
##  9 audio        0.1-7         CRAN (R 4.0.0) 0.1-7       
## 10 backports    1.1.7         CRAN (R 4.0.0) 1.2.0       
## # … with 368 more rows
…
      compareVersion(local_version, cran_version) == 1 &
        (is.na(cran_version) == FALSE) &
        str_detect(source, "CRAN") ~ "Downgraded on CRAN",
      compareVersion(local_version, cran_version) %in% c(-1, 0) ~ "CRAN"
    ),
    github_repo = case_when(
      source_locale == "Github" ~ 
        str_split(string = source, pattern = "@", simplify = TRUE)[,1] %>%
        str_replace("Github \\(", ""),
      TRUE ~ as.character(NA)
    ),
  ) %>%
  ungroup() %>%
  print()
## # A tibble: 378 x 6
##    package     local_version source       cran_version source_locale github_repo
##    <chr>       <chr>         <chr>        <chr>        <chr>         <chr>      
##  1 abind       1.4-5         CRAN (R 4.0… 1.4-5        CRAN          <NA>       
##  2 adagio      0.7.1         CRAN (R 4.0… 0.7.1        CRAN          <NA>       
##  3 ade4        1.7-15        CRAN (R 4.0… 1.7-16       CRAN          <NA>       
##  4 AER         1.2-9         CRAN (R 4.0… 1.2-9        CRAN          <NA>       
##  5 Amelia      1.7.6         CRAN (R 4.0… 1.7.6        CRAN          <NA>       
##  6 arrayhelpe… 1.1-0         CRAN (R 4.0… 1.1-0        CRAN          <NA>       
##  7 askpass     1.1           CRAN (R 4.0… 1.1          CRAN          <NA>       
##  8 assertthat  0.2.1         CRAN (R 4.0… 0.2.1        CRAN          <NA>       
##  9 audio       0.1-7         CRAN (R 4.0… 0.1-7        CRAN          <NA>       
## 10 backports   1.1.7         CRAN (R 4.0… 1.2.0        CRAN          <NA>       
## # … with 368 more rows
…
