Data Manipulation | Michael DeCrescenzo
…
str_detect(): returns TRUE if a string contains a pattern

str_replace(): replace a pattern in a string with a different pattern

Check online or investigate the help files to learn about how they’re used. We’ll see some examples next week when we do graphics.

Selecting columns

Maybe you don’t need all these variables for something. You can select specific variables using the select() function.

# from the anes dataset, grab only the cycle variable
select(anes, cycle)

## # A tibble: 55,674 x 1
##    cycle
##    <dbl>
##  1  1948
##  2  1948
##  3  1948
##  4  1948
##  5  1948
##  6  1948
##  7  1948
##  8  1948
##  9  1948
## 10  1948
## # … with 55,664 more rows
…
# drop cycle, keep all remaining variables
select(anes, -cycle, matches("."))

Learn more about “select helper functions” in the help file (?select).

Filtering rows (subsetting)

Let’s say we only want some of the observations. Use the filter() function and a logical test to identify the cases you want.

# keep cases from 2012 cycle
filter(anes, cycle == 2012)

## # A tibble: 5,914 x 955
##    Version cycle VCF0006 VCF0006a VCF0009x VCF0010x VCF0011x VCF0009y
##    <chr>   <dbl>   <dbl>    <dbl>    <dbl>    <dbl>    <dbl>    <dbl>
##  1 ANES_c…  2012       1 20120001    0.380    0.380    0.380        0
##  2 ANES_c…  2012       2 20120002    0.547    0.547    0.547        0
##  3 ANES_c…  2012       3 20120003    0.498    0.498    0.498        0
##  4 ANES_c…  2012       4 20120004    0.255    0.255    0.255        0
##  5 ANES_c…  2012       5 20120005    0.603    0.603    0.603        0
##  6 ANES_c…  2012       6 20120006    0.286    0.286    0.286        0
##  7 ANES_c…  2012       7 20120007    0.195    0.195    0.195        0
##  8 ANES_c…  2012       8 20120008    0.394    0.394    0.394        0
##  9 ANES_c…  2012       9 20120009    0.506    0.506    0.506        0
## 10 ANES_c…  2012      10 20120010    2.51     2.51     2.51         0
## # … with 5,904 more rows, and 947 more variables: VCF0010y <dbl>,
## #   VCF0011y <dbl>, VCF0009z <dbl>, VCF0010z <dbl>, VCF0011z <dbl>,
## #   VCF0012 <dbl>, VCF0012a <dbl>, VCF0012b <dbl>, VCF0013 <dbl+lbl>,
## #   VCF0014 <dbl+lbl>, VCF0015a <dbl+lbl>, VCF0015b <dbl+lbl>,
## #   VCF0016 <dbl+lbl>, VCF0017 <dbl+lbl>, VCF0018a <dbl+lbl>,
## #   VCF0018b <dbl+lbl>, VCF0019 <dbl+lbl>, VCF0050a <dbl+lbl>,
## #   VCF0050b <dbl+lbl>, VCF0070a <dbl+lbl>, VCF0070b <dbl+lbl>,
## #   VCF0071a <dbl+lbl>, VCF0071b <dbl+lbl>, VCF0071c <dbl+lbl>,
## #   VCF0071d <dbl+lbl>, VCF0072a <dbl+lbl>, VCF0072b <dbl+lbl>,
…
Grouping and summarizing

Most of the time you will use summarize() in conjunction with group_by(), which groups the data by some selection of variables. It doesn’t modify the cells in any way; it only implicitly partitions the data for later calculations.

For instance, let’s say we want to do find the number of observations within each election year the above calculation but within each election year. The n() function, when used inside of summarize() or mutate(), will find the number of observations.

# group by cycle
s <- group_by(anes, cycle)

# summarize the grouped data
summarize(s, 
          n = n(),
          mean_party_distance = mean(party_distance, na.rm = TRUE))

## # A tibble: 30 x 3
##    cycle     n mean_party_distance
##    <dbl> <int>               <dbl>
##  1  1948   662                 NaN
##  2  1952  1899                 NaN
##  3  1954  1139                 NaN
##  4  1956  1762                 NaN
##  5  1958  1450                 NaN
##  6  1960  1181                 NaN
##  7  1962  1297                 NaN
##  8  1964  1571                 NaN
##  9  1966  1291                 NaN
## 10  1968  1557                 NaN
## # … with 20 more rows

A data frame can later be ungrouped with (wait for it…) ungroup().

Sorting data

Sort data frames using arrange(). By default, sorting is done in ascending order. Sort variables in descending order using the desc() function within arrange(). You can also sort by multiple variables at once.

# keep cycle and party distance variables
# sort by cycle (descending order) and then by party distance
arr <- select(anes, cycle, party_distance) 
arrange(arr, desc(cycle), party_distance)

## # A tibble: 55,674 x 2
##    cycle party_distance
##    <dbl> <dbl+lbl>     
##  1  2012 -6            
##  2  2012 -6            
##  3  2012 -6            
##  4  2012 -6            
##  5  2012 -6            
##  6  2012 -6            
##  7  2012 -6            
##  8  2012 -6            
##  9  2012 -6            
## 10  2012 -6            
## # … with 55,664 more rows
…
count()

If you want your table to be organized as a data frame (which you often do want), use count(). This is nice for doing further calculations, exporting results (e.g. to \({\mathrm{\LaTeX}}\)), and so on.

# from the anes data, count the intersections of cycle and party ID
count(anes, cycle, pid7)

## # A tibble: 233 x 3
##    cycle pid7          n
##    <dbl> <dbl+lbl> <int>
##  1  1948 NA          662
##  2  1952  1          392
##  3  1952  2          435
##  4  1952  3          173
##  5  1952  4           83
##  6  1952  5          128
##  7  1952  6          237
##  8  1952  7          241
##  9  1952 NA          210
## 10  1954  1          248
## # … with 223 more rows

This contains the same information as table(anes\$cycle, anes\$pid7), but the result is a “tidy” data frame.

To get proportions, mutate the resulting table as desired. Here we get the proportion of each partisan identity within each election cycle. Group on the cycle and then dividing each count by the number of individuals in each cycle.

# tabulate these variables, party by cycle
(tab <- count(anes, cycle, pid7))

## # A tibble: 233 x 3
##    cycle pid7          n
##    <dbl> <dbl+lbl> <int>
##  1  1948 NA          662
##  2  1952  1          392
##  3  1952  2          435
##  4  1952  3          173
##  5  1952  4           83
##  6  1952  5          128
##  7  1952  6          237
##  8  1952  7          241
##  9  1952 NA          210
## 10  1954  1          248
## # … with 223 more rows

# group by cycle
# find n per cycle
# divide counts by n_in_cycle
# round
mutate(group_by(tab, cycle), 
       n_in_cycle = sum(n, na.rm = TRUE),
       p = n / n_in_cycle,
       p = round(p, 3))

## # A tibble: 233 x 5
## # Groups:   cycle [30]
##    cycle pid7          n n_in_cycle     p
##    <dbl> <dbl+lbl> <int>      <int> <dbl>
##  1  1948 NA          662        662 1    
##  2  1952  1          392       1899 0.206
##  3  1952  2          435       1899 0.229
##  4  1952  3          173       1899 0.091
##  5  1952  4           83       1899 0.044
##  6  1952  5          128       1899 0.067
##  7  1952  6          237       1899 0.125
##  8  1952  7          241       1899 0.127
##  9  1952 NA          210       1899 0.111
## 10  1954  1          248       1139 0.218
## # … with 223 more rows

The count() function also handles sample weights.

# keep only elections since 2000
# tabulate cycle and party
# apply sample weights
count(filter(anes, cycle >= 2000), 
      cycle, pid7, 
      wt = VCF0009z)

## # A tibble: 40 x 3
##    cycle pid7          n
##    <dbl> <dbl+lbl> <dbl>
##  1  2000  1        345. 
##  2  2000  2        274. 
##  3  2000  3        275. 
##  4  2000  4        237. 
##  5  2000  5        231. 
##  6  2000  6        207. 
##  7  2000  7        221. 
##  8  2000 NA         16.5
##  9  2002  1        246. 
## 10  2002  2        250. 
## # … with 30 more rows
…
