Plotting What Matters | Michael DeCrescenzo
…
This post unpacks this using a recent example from a grad methods course that I am TA’ing. The assignment requires students to write a policy memo informed by a statistical analysis. The statistical model contains an important component that students are learning about in the course, but that component isn’t actually important to communicate in the policy memo. So the assignment challenges students both on model-building but also communication skills: exercising restraint and judgment about what is and is not important to communicate about the details of the analysis.

The setting

The assignment for students to complete lays out the following scenario.

You are an advisor to a newly elected mayor of Smallville. During the campaign, the mayor-elect charged that the Sanitation Department was being grossly mismanaged. Last year it cost \(\$ 48.50\) per household for once-a-week curbside waste pick-up. A private contractor has made an informal bid of \(\$ 40.60\) per household for collection services, but this would require eliminating Sanitation Department jobs, which would be difficult and politically costly. Before switching to private contracting, the mayor would like to know how much costs might be reduced with the appointment of a more competent Sanitation Department supervisor.

Prepare a memorandum to the mayor advising her about the potential gains from better management. The mayor has had little statistical training, so be sure to explain your empirical work clearly and carefully.

Students are given a dataset of 30 other municipalities in the region, simulated from a model that they don’t directly see.

## # A tibble: 30 x 5
##    hholds density  wage snowdays cost_per_household
##     <dbl>   <dbl> <dbl>    <dbl>              <dbl>
##  1   3.35    565.  18.2        3               29.4
##  2  11.2     740.  15.7       10               52.0
##  3   9.48    540.  17.4        3               34.4
##  4   9.43    629.  19.6        1               41.5
##  5  11.3     685.  20.6        6               63.4
##  6   6.18    605.  20.2        6               30.0
##  7   2.82    510.  16.5        4               20.8
##  8   2.95    459.  15.8        2               12.9
##  9   6.98    507.  16.5        3               21.8
## 10   7.89    524.  19.9        2               37.8
## # … with 20 more rows
…
