Michael DeCrescenzo
…
Let’s do one more example where we try to detect some evidence of ideological polarization/sorting over time. We’ll track how the mean ideology among Democrats and Republicans changes over time. We use the as_data_frame() function to convert the table to a tibble (for nicer printing).

# collapse PID into Rs and Ds, else NA
sorting <- anes %>%
  mutate(party = case_when(pid7 %in% 1:3 ~ "Democrat",
                           pid7 %in% 5:7 ~ "Republicans")) %>%
  group.CI(libcon_self ~ party + cycle, data = .) %>%
  as_data_frame() %>%
  rename(upper = libcon_self.upper,
         mean = libcon_self.mean,
         lower = libcon_self.lower) %>% 
  print()

## # A tibble: 38 x 5
##    party       cycle upper  mean lower
##    <chr>       <dbl> <dbl> <dbl> <dbl>
##  1 Democrat     1972  3.86  3.77  3.68
##  2 Republicans  1972  4.73  4.64  4.55
##  3 Democrat     1974  3.84  3.73  3.63
##  4 Republicans  1974  4.85  4.74  4.62
##  5 Democrat     1976  3.89  3.79  3.70
##  6 Republicans  1976  4.98  4.88  4.79
##  7 Democrat     1978  3.85  3.76  3.67
##  8 Republicans  1978  4.96  4.86  4.76
##  9 Democrat     1980  3.95  3.83  3.70
## 10 Republicans  1980  5.09  4.98  4.86
## # ... with 28 more rows
…
\(\begin{align} \mathrm{link}(\mu_{i}) &= X_{i}\beta \\[6pt] \mu_{i} &= \mathrm{link}^{-1}\left( X_{i}\beta \right) \end{align}\)

To summarize, in linear regression, the prediction formula is directly related to \(\hat{y}\). Constant changes in predictors are related to constant changes in the response variable. In a GLM, the prediction formula may be on some unintuitive scale, so we convert it to an intuitive scale using an inverse link function. We can analyze and visualize GLMs in R with one additional step: transforming predictions from the linear equation using the inverse link function.

An example using logit

We’ll use logistic regression to predict a vote for the Republican presidential candidate using ideological self-placement and gender as covariates. Here are the data from 1996 only.

logit_data <- anes %>%
  filter(cycle == 1996) %>%
  select(vote, libcon_self, gender) %>%
  print()

## # A tibble: 1,714 x 3
##    vote                 libcon_self gender
##    <chr>                      <dbl> <chr> 
##  1 <NA>                        4.00 Women 
##  2 Democratic Candidate        4.00 Women 
##  3 <NA>                       NA    Men   
##  4 Democratic Candidate        4.00 Men   
##  5 Republican Candidate        4.00 Women 
##  6 <NA>                       NA    Men   
##  7 Republican Candidate        7.00 Men   
##  8 Democratic Candidate       NA    Men   
##  9 Democratic Candidate        4.00 Women 
## 10 <NA>                        7.00 Men   
## # ... with 1,704 more rows

Let’s transform this data to make it play nicely with modeling math.

logit_data <- logit_data %>%
  mutate(rvote = as.numeric(vote == "Republican Candidate"),
         woman = as.numeric(gender == "Women"),
         ideo = libcon_self - 4) %>%
  print()

## # A tibble: 1,714 x 6
##    vote                 libcon_self gender rvote woman  ideo
##    <chr>                      <dbl> <chr>  <dbl> <dbl> <dbl>
##  1 <NA>                        4.00 Women  NA     1.00  0   
##  2 Democratic Candidate        4.00 Women   0     1.00  0   
##  3 <NA>                       NA    Men    NA     0    NA   
##  4 Democratic Candidate        4.00 Men     0     0     0   
##  5 Republican Candidate        4.00 Women   1.00  1.00  0   
##  6 <NA>                       NA    Men    NA     0    NA   
##  7 Republican Candidate        7.00 Men     1.00  0     3.00
##  8 Democratic Candidate       NA    Men     0     0    NA   
##  9 Democratic Candidate        4.00 Women   0     1.00  0   
## 10 <NA>                        7.00 Men    NA     0     3.00
## # ... with 1,704 more rows
…
From there, you can do cool things like “melt” the list into a data frame using reshape2::melt().

lapply(anes_list, function(x) mean(x$party_distance, na.rm = TRUE)) %>%
  reshape2::melt()

Nesting: superpowered lists

When you get really comfortable with function programming, you can do crazy stuff like nest a data frame. What is that?

anes %>%
  group_by(cycle) %>%
  nest() 

## # A tibble: 30 x 2
##    cycle data                  
##    <dbl> <list>                
##  1  1948 <tibble [662 × 961]>  
##  2  1952 <tibble [1,899 × 961]>
##  3  1954 <tibble [1,139 × 961]>
##  4  1956 <tibble [1,762 × 961]>
##  5  1958 <tibble [1,450 × 961]>
##  6  1960 <tibble [1,181 × 961]>
##  7  1962 <tibble [1,297 × 961]>
##  8  1964 <tibble [1,571 × 961]>
##  9  1966 <tibble [1,291 × 961]>
## 10  1968 <tibble [1,557 × 961]>
## # ... with 20 more rows
…
gender_gaps <- anes %>%
  mutate(rvote = as.numeric(vote == "Republican Candidate")) %>% 
  filter(!is.na(rvote) & !is.na(woman)) %>%
  group_by(cycle) %>%
  nest() %>% 
  mutate(model = map(data, 
                     ~ glm(rvote ~ -1 + as.factor(woman), 
                           data = ., family = "binomial") %>%
                       tidy(conf.int = TRUE))) %>%
  unnest(model) %>%
  mutate(term = case_when(str_detect(term, "0") ~ "Man",
                          TRUE ~ "Woman")) %>% 
  print()

## # A tibble: 34 x 8
##    cycle term  estimate std.error statistic     p.value conf.low conf.high
##    <dbl> <chr>    <dbl>     <dbl>     <dbl>       <dbl>    <dbl>     <dbl>
##  1  1948 Man     -0.228    0.145     -1.58     1.15e⁻ ¹  -0.513     0.0544
##  2  1948 Woman   -0.113    0.143     -0.787    4.31e⁻ ¹  -0.395     0.168 
##  3  1952 Man      0.286    0.0840     3.40     6.76e⁻ ⁴   0.121     0.451 
##  4  1952 Woman    0.372    0.0829     4.49     6.98e⁻ ⁶   0.211     0.536 
##  5  1956 Man      0.259    0.0815     3.18     1.46e⁻ ³   0.1000    0.419 
##  6  1956 Woman    0.517    0.0809     6.39     1.71e⁻¹⁰   0.359     0.676 
##  7  1960 Man     -0.107    0.0967    -1.11     2.67e⁻ ¹  -0.297     0.0820
##  8  1960 Woman    0.124    0.0925     1.34     1.81e⁻ ¹  -0.0573    0.306 
##  9  1964 Man     -0.640    0.0934    -6.85     7.14e⁻¹²  -0.825    -0.459 
## 10  1964 Woman   -0.810    0.0881    -9.19     4.04e⁻²⁰  -0.985    -0.639 
## # ... with 24 more rows
…
